{
  "resource_name" : {
    "timestamp" : "monthdayyear hourminutesecond",
    "description" : "Description here if any. That'll include links that
    people add in.",
    "files" : ["the path to files if there are any"],
    "_comment" : "Naming scheme for the files as they are put in should be
    'subject -- resource_name[file index] -- timestamp. Make sure that they
    can't overload the name with too many characters."
  },
  "subject1" : {
    "resource" : {
      "_comment" : "Look above at 'resource_name' object for what is going
      to be in here."
    },
  "general" : {
    
  }
}
